[
    {
        "name": "microservice1",
	    "tu": 1000000000
    },
    {
        "name": "microservice2",
	    "tu": 1000000000
    },
    {
        "name": "microservice3",
	    "tu": 1000000000
    },
    {
        "name": "microservice4",
	    "tu": 1000000000
    }
]
